{
  "hash": "4e6282af",
  "configHash": "c93ca148",
  "lockfileHash": "c11167d8",
  "browserHash": "52e4f425",
  "optimized": {
    "@angular/common": {
      "src": "../../../../../node_modules/@angular/common/fesm2022/common.mjs",
      "file": "@angular_common.js",
      "fileHash": "9916bf00",
      "needsInterop": false
    },
    "@angular/common/http": {
      "src": "../../../../../node_modules/@angular/common/fesm2022/http.mjs",
      "file": "@angular_common_http.js",
      "fileHash": "7203351b",
      "needsInterop": false
    },
    "@angular/core": {
      "src": "../../../../../node_modules/@angular/core/fesm2022/core.mjs",
      "file": "@angular_core.js",
      "fileHash": "f50a1bf0",
      "needsInterop": false
    },
    "@angular/forms": {
      "src": "../../../../../node_modules/@angular/forms/fesm2022/forms.mjs",
      "file": "@angular_forms.js",
      "fileHash": "8a4ee558",
      "needsInterop": false
    },
    "@angular/platform-browser": {
      "src": "../../../../../node_modules/@angular/platform-browser/fesm2022/platform-browser.mjs",
      "file": "@angular_platform-browser.js",
      "fileHash": "91575950",
      "needsInterop": false
    },
    "@angular/router": {
      "src": "../../../../../node_modules/@angular/router/fesm2022/router.mjs",
      "file": "@angular_router.js",
      "fileHash": "85e1fd16",
      "needsInterop": false
    },
    "@auth0/angular-jwt": {
      "src": "../../../../../node_modules/@auth0/angular-jwt/fesm2020/auth0-angular-jwt.mjs",
      "file": "@auth0_angular-jwt.js",
      "fileHash": "75ee2052",
      "needsInterop": false
    },
    "angular-code-input": {
      "src": "../../../../../node_modules/angular-code-input/fesm2022/angular-code-input.mjs",
      "file": "angular-code-input.js",
      "fileHash": "8412eb93",
      "needsInterop": false
    },
    "rxjs": {
      "src": "../../../../../node_modules/rxjs/dist/esm5/index.js",
      "file": "rxjs.js",
      "fileHash": "8a25629e",
      "needsInterop": false
    },
    "rxjs/operators": {
      "src": "../../../../../node_modules/rxjs/dist/esm5/operators/index.js",
      "file": "rxjs_operators.js",
      "fileHash": "6816c230",
      "needsInterop": false
    }
  },
  "chunks": {
    "chunk-X373TUDQ": {
      "file": "chunk-X373TUDQ.js"
    },
    "chunk-B3QAQFIU": {
      "file": "chunk-B3QAQFIU.js"
    },
    "chunk-676WTM32": {
      "file": "chunk-676WTM32.js"
    },
    "chunk-EV6PSGLL": {
      "file": "chunk-EV6PSGLL.js"
    },
    "chunk-YIAFZ24P": {
      "file": "chunk-YIAFZ24P.js"
    },
    "chunk-DGSSWR5S": {
      "file": "chunk-DGSSWR5S.js"
    },
    "chunk-RDY66B4C": {
      "file": "chunk-RDY66B4C.js"
    }
  }
}